<svg width="28" height="21" viewBox="0 0 28 21" fill="none" xmlns="http://www.w3.org/2000/svg">
<path d="M13.5967 13.9997C15.5835 13.9997 17.1942 12.389 17.1942 10.4022C17.1942 8.41535 15.5835 6.80469 13.5967 6.80469C11.6098 6.80469 9.99915 8.41535 9.99915 10.4022C9.99915 12.389 11.6098 13.9997 13.5967 13.9997Z" fill="#28B7FB"/>
<path d="M27.0334 10.0965C25.9756 7.36024 24.1392 4.99394 21.7512 3.29005C19.3632 1.58615 16.5282 0.619334 13.5967 0.509094C10.6652 0.619334 7.83026 1.58615 5.44225 3.29005C3.05424 4.99394 1.21784 7.36024 0.160025 10.0965C0.0885853 10.2941 0.0885853 10.5104 0.160025 10.708C1.21784 13.4443 3.05424 15.8105 5.44225 17.5144C7.83026 19.2183 10.6652 20.1852 13.5967 20.2954C16.5282 20.1852 19.3632 19.2183 21.7512 17.5144C24.1392 15.8105 25.9756 13.4443 27.0334 10.708C27.1049 10.5104 27.1049 10.2941 27.0334 10.0965ZM13.5967 16.2482C12.4405 16.2482 11.3102 15.9053 10.3489 15.263C9.38752 14.6206 8.63823 13.7076 8.19577 12.6394C7.7533 11.5712 7.63753 10.3958 7.8631 9.26176C8.08867 8.12775 8.64544 7.0861 9.46301 6.26853C10.2806 5.45096 11.3222 4.89419 12.4562 4.66862C13.5902 4.44305 14.7657 4.55882 15.8339 5.00129C16.9021 5.44376 17.8151 6.19305 18.4575 7.15441C19.0998 8.11577 19.4427 9.24603 19.4427 10.4022C19.4403 11.952 18.8236 13.4375 17.7278 14.5333C16.632 15.6291 15.1464 16.2458 13.5967 16.2482Z" fill="#28B7FB"/>
</svg>
