<svg width="45" height="45" viewBox="0 0 45 45" fill="none" xmlns="http://www.w3.org/2000/svg">
<rect x="0.5" y="0.5" width="44" height="44" rx="5.5" fill="#246D73" stroke="#246D73"/>
<path d="M15.214 30.6667H29.786C30.0937 30.6668 30.3899 30.779 30.6147 30.9808C30.8395 31.1826 30.9762 31.4589 30.9972 31.7538C31.0181 32.0487 30.9218 32.3403 30.7277 32.5696C30.5335 32.7989 30.256 32.9488 29.9512 32.9891L29.786 33H15.214C14.9063 32.9999 14.6101 32.8876 14.3853 32.6858C14.1605 32.484 14.0238 32.2078 14.0028 31.9129C13.9819 31.6179 14.0782 31.3264 14.2723 31.0971C14.4665 30.8678 14.744 30.7178 15.0488 30.6776L15.214 30.6667H29.786H15.214ZM22.3348 12.0109L22.5 12C22.7934 12 23.077 12.1021 23.2981 12.2874C23.5193 12.4727 23.6631 12.7287 23.703 13.008L23.7143 13.1667V25.1258L27.3655 21.6196C27.5714 21.4218 27.8444 21.3017 28.1347 21.2811C28.4251 21.2606 28.7135 21.3409 28.9473 21.5076L29.0833 21.6196C29.2892 21.8174 29.4142 22.0797 29.4356 22.3586C29.457 22.6376 29.3733 22.9147 29.1999 23.1393L29.0833 23.27L23.3581 28.7689C23.1525 28.9665 22.8799 29.0866 22.5899 29.1074C22.2999 29.1283 22.0118 29.0484 21.7779 28.8824L21.6419 28.7689L15.9167 23.27C15.6994 23.0618 15.5722 22.7823 15.5607 22.4878C15.5491 22.1932 15.6541 21.9053 15.8545 21.682C16.0549 21.4588 16.3358 21.3167 16.6408 21.2843C16.9458 21.2519 17.2523 21.3317 17.4985 21.5076L17.6346 21.6196L21.2857 25.1289V13.1667C21.2857 12.8847 21.3919 12.6124 21.5848 12.3999C21.7777 12.1874 22.0441 12.0492 22.3348 12.0109L22.5 12L22.3348 12.0109Z" fill="white"/>
</svg>
