<svg width="304" height="153" viewBox="0 0 304 153" fill="none" xmlns="http://www.w3.org/2000/svg">
<path fill-rule="evenodd" clip-rule="evenodd" d="M2.00018 32.5322C19.2738 32.5322 33.2768 18.5292 33.2768 1.25562L272.255 1.25562C272.238 1.67061 272.23 2.08768 272.23 2.50668C272.23 19.2752 285.426 32.9615 302 33.7477V120.142C285.426 120.929 272.23 134.615 272.23 151.383H33.2767C33.2767 134.11 19.2737 120.107 2.00009 120.107H2V32.5322C2.00006 32.5322 2.00012 32.5322 2.00018 32.5322Z" fill="#FFFCFC" fill-opacity="0.5"/>
<path d="M33.2768 1.25562V0.00455379H32.0257V1.25562H33.2768ZM272.255 1.25562L273.505 1.3048L273.556 0.00454998H272.255V1.25562ZM302 33.7477H303.251V32.5545L302.059 32.498L302 33.7477ZM302 120.142L302.059 121.392L303.251 121.336V120.142H302ZM272.23 151.383V152.634H273.481V151.383H272.23ZM33.2767 151.383H32.0257V152.634H33.2767V151.383ZM2 120.107H0.748935V121.358H2V120.107ZM2 32.5322V31.2812H0.748935V32.5322H2ZM32.0257 1.25562C32.0257 17.8383 18.5828 31.2812 2.00018 31.2812V33.7833C19.9647 33.7833 34.5279 19.2202 34.5279 1.25562H32.0257ZM272.255 0.00454998L33.2768 0.00455379V2.50668L272.255 2.50668V0.00454998ZM273.481 2.50668C273.481 2.10408 273.489 1.70341 273.505 1.3048L271.005 1.20643C270.988 1.63781 270.979 2.07128 270.979 2.50668H273.481ZM302.059 32.498C286.149 31.7434 273.481 18.6041 273.481 2.50668H270.979C270.979 19.9463 284.703 34.1797 301.941 34.9973L302.059 32.498ZM303.251 120.142V33.7477H300.749V120.142H303.251ZM273.481 151.383C273.481 135.286 286.149 122.147 302.059 121.392L301.941 118.893C284.703 119.71 270.979 133.944 270.979 151.383H273.481ZM33.2767 152.634H272.23V150.132H33.2767V152.634ZM2.00009 121.358C18.5828 121.358 32.0257 134.801 32.0257 151.383H34.5278C34.5278 133.419 19.9646 118.856 2.00009 118.856V121.358ZM2 121.358H2.00009V118.856H2V121.358ZM0.748935 32.5322V120.107H3.25107V32.5322H0.748935ZM2.00018 31.2812C2.00018 31.2812 2.00018 31.2812 2.00018 31.2812C2.00018 31.2812 2.00018 31.2812 2.00018 31.2812C2.00018 31.2812 2.00018 31.2812 2.00018 31.2812C2.00018 31.2812 2.00018 31.2812 2.00018 31.2812C2.00018 31.2812 2.00018 31.2812 2.00018 31.2812C2.00018 31.2812 2.00018 31.2812 2.00018 31.2812C2.00018 31.2812 2.00018 31.2812 2.00017 31.2812C2.00017 31.2812 2.00017 31.2812 2.00017 31.2812C2.00017 31.2812 2.00017 31.2812 2.00017 31.2812C2.00017 31.2812 2.00017 31.2812 2.00017 31.2812C2.00017 31.2812 2.00017 31.2812 2.00017 31.2812C2.00017 31.2812 2.00017 31.2812 2.00017 31.2812C2.00017 31.2812 2.00017 31.2812 2.00017 31.2812C2.00017 31.2812 2.00017 31.2812 2.00017 31.2812C2.00017 31.2812 2.00017 31.2812 2.00017 31.2812C2.00017 31.2812 2.00017 31.2812 2.00017 31.2812C2.00017 31.2812 2.00017 31.2812 2.00017 31.2812C2.00017 31.2812 2.00017 31.2812 2.00017 31.2812C2.00017 31.2812 2.00017 31.2812 2.00017 31.2812C2.00017 31.2812 2.00017 31.2812 2.00017 31.2812C2.00017 31.2812 2.00017 31.2812 2.00017 31.2812C2.00017 31.2812 2.00017 31.2812 2.00017 31.2812C2.00017 31.2812 2.00017 31.2812 2.00017 31.2812C2.00017 31.2812 2.00017 31.2812 2.00017 31.2812C2.00017 31.2812 2.00017 31.2812 2.00017 31.2812C2.00017 31.2812 2.00017 31.2812 2.00017 31.2812C2.00017 31.2812 2.00017 31.2812 2.00017 31.2812C2.00017 31.2812 2.00017 31.2812 2.00017 31.2812C2.00017 31.2812 2.00017 31.2812 2.00017 31.2812C2.00017 31.2812 2.00017 31.2812 2.00017 31.2812C2.00017 31.2812 2.00017 31.2812 2.00017 31.2812C2.00017 31.2812 2.00017 31.2812 2.00017 31.2812C2.00017 31.2812 2.00017 31.2812 2.00017 31.2812C2.00017 31.2812 2.00017 31.2812 2.00017 31.2812C2.00017 31.2812 2.00017 31.2812 2.00017 31.2812C2.00017 31.2812 2.00017 31.2812 2.00016 31.2812C2.00016 31.2812 2.00016 31.2812 2.00016 31.2812C2.00016 31.2812 2.00016 31.2812 2.00016 31.2812C2.00016 31.2812 2.00016 31.2812 2.00016 31.2812C2.00016 31.2812 2.00016 31.2812 2.00016 31.2812C2.00016 31.2812 2.00016 31.2812 2.00016 31.2812C2.00016 31.2812 2.00016 31.2812 2.00016 31.2812C2.00016 31.2812 2.00016 31.2812 2.00016 31.2812C2.00016 31.2812 2.00016 31.2812 2.00016 31.2812C2.00016 31.2812 2.00016 31.2812 2.00016 31.2812C2.00016 31.2812 2.00016 31.2812 2.00016 31.2812C2.00016 31.2812 2.00016 31.2812 2.00016 31.2812C2.00016 31.2812 2.00016 31.2812 2.00016 31.2812C2.00016 31.2812 2.00016 31.2812 2.00016 31.2812C2.00016 31.2812 2.00016 31.2812 2.00016 31.2812C2.00016 31.2812 2.00016 31.2812 2.00016 31.2812C2.00016 31.2812 2.00016 31.2812 2.00016 31.2812C2.00016 31.2812 2.00016 31.2812 2.00016 31.2812C2.00016 31.2812 2.00016 31.2812 2.00016 31.2812C2.00016 31.2812 2.00016 31.2812 2.00016 31.2812C2.00016 31.2812 2.00016 31.2812 2.00016 31.2812C2.00016 31.2812 2.00016 31.2812 2.00016 31.2812C2.00016 31.2812 2.00016 31.2812 2.00016 31.2812C2.00016 31.2812 2.00016 31.2812 2.00016 31.2812C2.00016 31.2812 2.00016 31.2812 2.00016 31.2812C2.00016 31.2812 2.00016 31.2812 2.00016 31.2812C2.00016 31.2812 2.00016 31.2812 2.00016 31.2812C2.00016 31.2812 2.00016 31.2812 2.00016 31.2812C2.00016 31.2812 2.00016 31.2812 2.00016 31.2812C2.00016 31.2812 2.00015 31.2812 2.00015 31.2812C2.00015 31.2812 2.00015 31.2812 2.00015 31.2812C2.00015 31.2812 2.00015 31.2812 2.00015 31.2812C2.00015 31.2812 2.00015 31.2812 2.00015 31.2812C2.00015 31.2812 2.00015 31.2812 2.00015 31.2812C2.00015 31.2812 2.00015 31.2812 2.00015 31.2812C2.00015 31.2812 2.00015 31.2812 2.00015 31.2812C2.00015 31.2812 2.00015 31.2812 2.00015 31.2812C2.00015 31.2812 2.00015 31.2812 2.00015 31.2812C2.00015 31.2812 2.00015 31.2812 2.00015 31.2812C2.00015 31.2812 2.00015 31.2812 2.00015 31.2812C2.00015 31.2812 2.00015 31.2812 2.00015 31.2812C2.00015 31.2812 2.00015 31.2812 2.00015 31.2812C2.00015 31.2812 2.00015 31.2812 2.00015 31.2812C2.00015 31.2812 2.00015 31.2812 2.00015 31.2812C2.00015 31.2812 2.00015 31.2812 2.00015 31.2812C2.00015 31.2812 2.00015 31.2812 2.00015 31.2812C2.00015 31.2812 2.00015 31.2812 2.00015 31.2812C2.00015 31.2812 2.00015 31.2812 2.00015 31.2812C2.00015 31.2812 2.00015 31.2812 2.00015 31.2812C2.00015 31.2812 2.00015 31.2812 2.00015 31.2812C2.00015 31.2812 2.00015 31.2812 2.00015 31.2812C2.00015 31.2812 2.00015 31.2812 2.00015 31.2812C2.00015 31.2812 2.00015 31.2812 2.00015 31.2812C2.00015 31.2812 2.00015 31.2812 2.00015 31.2812C2.00015 31.2812 2.00015 31.2812 2.00015 31.2812C2.00015 31.2812 2.00015 31.2812 2.00015 31.2812C2.00015 31.2812 2.00015 31.2812 2.00015 31.2812C2.00015 31.2812 2.00015 31.2812 2.00015 31.2812C2.00015 31.2812 2.00014 31.2812 2.00014 31.2812C2.00014 31.2812 2.00014 31.2812 2.00014 31.2812C2.00014 31.2812 2.00014 31.2812 2.00014 31.2812C2.00014 31.2812 2.00014 31.2812 2.00014 31.2812C2.00014 31.2812 2.00014 31.2812 2.00014 31.2812C2.00014 31.2812 2.00014 31.2812 2.00014 31.2812C2.00014 31.2812 2.00014 31.2812 2.00014 31.2812C2.00014 31.2812 2.00014 31.2812 2.00014 31.2812C2.00014 31.2812 2.00014 31.2812 2.00014 31.2812C2.00014 31.2812 2.00014 31.2812 2.00014 31.2812C2.00014 31.2812 2.00014 31.2812 2.00014 31.2812C2.00014 31.2812 2.00014 31.2812 2.00014 31.2812C2.00014 31.2812 2.00014 31.2812 2.00014 31.2812C2.00014 31.2812 2.00014 31.2812 2.00014 31.2812C2.00014 31.2812 2.00014 31.2812 2.00014 31.2812C2.00014 31.2812 2.00014 31.2812 2.00014 31.2812C2.00014 31.2812 2.00014 31.2812 2.00014 31.2812C2.00014 31.2812 2.00014 31.2812 2.00014 31.2812C2.00014 31.2812 2.00014 31.2812 2.00014 31.2812C2.00014 31.2812 2.00014 31.2812 2.00014 31.2812C2.00014 31.2812 2.00014 31.2812 2.00014 31.2812C2.00014 31.2812 2.00014 31.2812 2.00014 31.2812C2.00014 31.2812 2.00014 31.2812 2.00014 31.2812C2.00014 31.2812 2.00014 31.2812 2.00014 31.2812C2.00014 31.2812 2.00014 31.2812 2.00014 31.2812C2.00014 31.2812 2.00014 31.2812 2.00014 31.2812C2.00014 31.2812 2.00014 31.2812 2.00014 31.2812C2.00014 31.2812 2.00014 31.2812 2.00014 31.2812C2.00014 31.2812 2.00014 31.2812 2.00014 31.2812C2.00014 31.2812 2.00013 31.2812 2.00013 31.2812C2.00013 31.2812 2.00013 31.2812 2.00013 31.2812C2.00013 31.2812 2.00013 31.2812 2.00013 31.2812C2.00013 31.2812 2.00013 31.2812 2.00013 31.2812C2.00013 31.2812 2.00013 31.2812 2.00013 31.2812C2.00013 31.2812 2.00013 31.2812 2.00013 31.2812C2.00013 31.2812 2.00013 31.2812 2.00013 31.2812C2.00013 31.2812 2.00013 31.2812 2.00013 31.2812C2.00013 31.2812 2.00013 31.2812 2.00013 31.2812C2.00013 31.2812 2.00013 31.2812 2.00013 31.2812C2.00013 31.2812 2.00013 31.2812 2.00013 31.2812C2.00013 31.2812 2.00013 31.2812 2.00013 31.2812C2.00013 31.2812 2.00013 31.2812 2.00013 31.2812C2.00013 31.2812 2.00013 31.2812 2.00013 31.2812C2.00013 31.2812 2.00013 31.2812 2.00013 31.2812C2.00013 31.2812 2.00013 31.2812 2.00013 31.2812C2.00013 31.2812 2.00013 31.2812 2.00013 31.2812C2.00013 31.2812 2.00013 31.2812 2.00013 31.2812C2.00013 31.2812 2.00013 31.2812 2.00013 31.2812C2.00013 31.2812 2.00013 31.2812 2.00013 31.2812C2.00013 31.2812 2.00013 31.2812 2.00013 31.2812C2.00013 31.2812 2.00013 31.2812 2.00013 31.2812C2.00013 31.2812 2.00013 31.2812 2.00013 31.2812C2.00013 31.2812 2.00013 31.2812 2.00013 31.2812C2.00013 31.2812 2.00013 31.2812 2.00013 31.2812C2.00013 31.2812 2.00013 31.2812 2.00013 31.2812C2.00013 31.2812 2.00013 31.2812 2.00013 31.2812C2.00013 31.2812 2.00013 31.2812 2.00013 31.2812C2.00013 31.2812 2.00013 31.2812 2.00013 31.2812C2.00012 31.2812 2.00012 31.2812 2.00012 31.2812C2.00012 31.2812 2.00012 31.2812 2.00012 31.2812C2.00012 31.2812 2.00012 31.2812 2.00012 31.2812C2.00012 31.2812 2.00012 31.2812 2.00012 31.2812C2.00012 31.2812 2.00012 31.2812 2.00012 31.2812C2.00012 31.2812 2.00012 31.2812 2.00012 31.2812C2.00012 31.2812 2.00012 31.2812 2.00012 31.2812C2.00012 31.2812 2.00012 31.2812 2.00012 31.2812C2.00012 31.2812 2.00012 31.2812 2.00012 31.2812C2.00012 31.2812 2.00012 31.2812 2.00012 31.2812C2.00012 31.2812 2.00012 31.2812 2.00012 31.2812C2.00012 31.2812 2.00012 31.2812 2.00012 31.2812C2.00012 31.2812 2.00012 31.2812 2.00012 31.2812C2.00012 31.2812 2.00012 31.2812 2.00012 31.2812C2.00012 31.2812 2.00012 31.2812 2.00012 31.2812C2.00012 31.2812 2.00012 31.2812 2.00012 31.2812C2.00012 31.2812 2.00012 31.2812 2.00012 31.2812C2.00012 31.2812 2.00012 31.2812 2.00012 31.2812C2.00012 31.2812 2.00012 31.2812 2.00012 31.2812C2.00012 31.2812 2.00012 31.2812 2.00012 31.2812C2.00012 31.2812 2.00012 31.2812 2.00012 31.2812C2.00012 31.2812 2.00012 31.2812 2.00012 31.2812C2.00012 31.2812 2.00012 31.2812 2.00012 31.2812C2.00012 31.2812 2.00012 31.2812 2.00012 31.2812C2.00012 31.2812 2.00012 31.2812 2.00012 31.2812C2.00012 31.2812 2.00012 31.2812 2.00012 31.2812C2.00012 31.2812 2.00012 31.2812 2.00012 31.2812C2.00012 31.2812 2.00012 31.2812 2.00012 31.2812C2.00012 31.2812 2.00012 31.2812 2.00012 31.2812C2.00011 31.2812 2.00011 31.2812 2.00011 31.2812C2.00011 31.2812 2.00011 31.2812 2.00011 31.2812C2.00011 31.2812 2.00011 31.2812 2.00011 31.2812C2.00011 31.2812 2.00011 31.2812 2.00011 31.2812C2.00011 31.2812 2.00011 31.2812 2.00011 31.2812C2.00011 31.2812 2.00011 31.2812 2.00011 31.2812C2.00011 31.2812 2.00011 31.2812 2.00011 31.2812C2.00011 31.2812 2.00011 31.2812 2.00011 31.2812C2.00011 31.2812 2.00011 31.2812 2.00011 31.2812C2.00011 31.2812 2.00011 31.2812 2.00011 31.2812C2.00011 31.2812 2.00011 31.2812 2.00011 31.2812C2.00011 31.2812 2.00011 31.2812 2.00011 31.2812C2.00011 31.2812 2.00011 31.2812 2.00011 31.2812C2.00011 31.2812 2.00011 31.2812 2.00011 31.2812C2.00011 31.2812 2.00011 31.2812 2.00011 31.2812C2.00011 31.2812 2.00011 31.2812 2.00011 31.2812C2.00011 31.2812 2.00011 31.2812 2.00011 31.2812C2.00011 31.2812 2.00011 31.2812 2.00011 31.2812C2.00011 31.2812 2.00011 31.2812 2.00011 31.2812C2.00011 31.2812 2.00011 31.2812 2.00011 31.2812C2.00011 31.2812 2.00011 31.2812 2.00011 31.2812C2.00011 31.2812 2.00011 31.2812 2.00011 31.2812C2.00011 31.2812 2.00011 31.2812 2.00011 31.2812C2.00011 31.2812 2.00011 31.2812 2.00011 31.2812C2.00011 31.2812 2.00011 31.2812 2.00011 31.2812C2.00011 31.2812 2.00011 31.2812 2.00011 31.2812C2.00011 31.2812 2.00011 31.2812 2.00011 31.2812C2.00011 31.2812 2.00011 31.2812 2.00011 31.2812C2.00011 31.2812 2.00011 31.2812 2.0001 31.2812C2.0001 31.2812 2.0001 31.2812 2.0001 31.2812C2.0001 31.2812 2.0001 31.2812 2.0001 31.2812C2.0001 31.2812 2.0001 31.2812 2.0001 31.2812C2.0001 31.2812 2.0001 31.2812 2.0001 31.2812C2.0001 31.2812 2.0001 31.2812 2.0001 31.2812C2.0001 31.2812 2.0001 31.2812 2.0001 31.2812C2.0001 31.2812 2.0001 31.2812 2.0001 31.2812C2.0001 31.2812 2.0001 31.2812 2.0001 31.2812C2.0001 31.2812 2.0001 31.2812 2.0001 31.2812C2.0001 31.2812 2.0001 31.2812 2.0001 31.2812C2.0001 31.2812 2.0001 31.2812 2.0001 31.2812C2.0001 31.2812 2.0001 31.2812 2.0001 31.2812C2.0001 31.2812 2.0001 31.2812 2.0001 31.2812C2.0001 31.2812 2.0001 31.2812 2.0001 31.2812C2.0001 31.2812 2.0001 31.2812 2.0001 31.2812C2.0001 31.2812 2.0001 31.2812 2.0001 31.2812C2.0001 31.2812 2.0001 31.2812 2.0001 31.2812C2.0001 31.2812 2.0001 31.2812 2.0001 31.2812C2.0001 31.2812 2.0001 31.2812 2.0001 31.2812C2.0001 31.2812 2.0001 31.2812 2.0001 31.2812C2.0001 31.2812 2.0001 31.2812 2.0001 31.2812C2.0001 31.2812 2.0001 31.2812 2.0001 31.2812C2.0001 31.2812 2.0001 31.2812 2.0001 31.2812C2.0001 31.2812 2.0001 31.2812 2.0001 31.2812C2.0001 31.2812 2.0001 31.2812 2.0001 31.2812C2.0001 31.2812 2.0001 31.2812 2.0001 31.2812C2.0001 31.2812 2.0001 31.2812 2.0001 31.2812C2.0001 31.2812 2.0001 31.2812 2.0001 31.2812C2.0001 31.2812 2.0001 31.2812 2.00009 31.2812C2.00009 31.2812 2.00009 31.2812 2.00009 31.2812C2.00009 31.2812 2.00009 31.2812 2.00009 31.2812C2.00009 31.2812 2.00009 31.2812 2.00009 31.2812C2.00009 31.2812 2.00009 31.2812 2.00009 31.2812C2.00009 31.2812 2.00009 31.2812 2.00009 31.2812C2.00009 31.2812 2.00009 31.2812 2.00009 31.2812C2.00009 31.2812 2.00009 31.2812 2.00009 31.2812C2.00009 31.2812 2.00009 31.2812 2.00009 31.2812C2.00009 31.2812 2.00009 31.2812 2.00009 31.2812C2.00009 31.2812 2.00009 31.2812 2.00009 31.2812C2.00009 31.2812 2.00009 31.2812 2.00009 31.2812C2.00009 31.2812 2.00009 31.2812 2.00009 31.2812C2.00009 31.2812 2.00009 31.2812 2.00009 31.2812C2.00009 31.2812 2.00009 31.2812 2.00009 31.2812C2.00009 31.2812 2.00009 31.2812 2.00009 31.2812C2.00009 31.2812 2.00009 31.2812 2.00009 31.2812C2.00009 31.2812 2.00009 31.2812 2.00009 31.2812C2.00009 31.2812 2.00009 31.2812 2.00009 31.2812C2.00009 31.2812 2.00009 31.2812 2.00009 31.2812C2.00009 31.2812 2.00009 31.2812 2.00009 31.2812C2.00009 31.2812 2.00009 31.2812 2.00009 31.2812C2.00009 31.2812 2.00009 31.2812 2.00009 31.2812C2.00009 31.2812 2.00009 31.2812 2.00009 31.2812C2.00009 31.2812 2.00009 31.2812 2.00009 31.2812C2.00009 31.2812 2.00009 31.2812 2.00009 31.2812C2.00009 31.2812 2.00009 31.2812 2.00009 31.2812C2.00009 31.2812 2.00009 31.2812 2.00009 31.2812C2.00009 31.2812 2.00009 31.2812 2.00009 31.2812C2.00009 31.2812 2.00008 31.2812 2.00008 31.2812C2.00008 31.2812 2.00008 31.2812 2.00008 31.2812C2.00008 31.2812 2.00008 31.2812 2.00008 31.2812C2.00008 31.2812 2.00008 31.2812 2.00008 31.2812C2.00008 31.2812 2.00008 31.2812 2.00008 31.2812C2.00008 31.2812 2.00008 31.2812 2.00008 31.2812C2.00008 31.2812 2.00008 31.2812 2.00008 31.2812C2.00008 31.2812 2.00008 31.2812 2.00008 31.2812C2.00008 31.2812 2.00008 31.2812 2.00008 31.2812C2.00008 31.2812 2.00008 31.2812 2.00008 31.2812C2.00008 31.2812 2.00008 31.2812 2.00008 31.2812C2.00008 31.2812 2.00008 31.2812 2.00008 31.2812C2.00008 31.2812 2.00008 31.2812 2.00008 31.2812C2.00008 31.2812 2.00008 31.2812 2.00008 31.2812C2.00008 31.2812 2.00008 31.2812 2.00008 31.2812C2.00008 31.2812 2.00008 31.2812 2.00008 31.2812C2.00008 31.2812 2.00008 31.2812 2.00008 31.2812C2.00008 31.2812 2.00008 31.2812 2.00008 31.2812C2.00008 31.2812 2.00008 31.2812 2.00008 31.2812C2.00008 31.2812 2.00008 31.2812 2.00008 31.2812C2.00008 31.2812 2.00008 31.2812 2.00008 31.2812C2.00008 31.2812 2.00008 31.2812 2.00008 31.2812C2.00008 31.2812 2.00008 31.2812 2.00008 31.2812C2.00008 31.2812 2.00008 31.2812 2.00008 31.2812C2.00008 31.2812 2.00008 31.2812 2.00008 31.2812C2.00008 31.2812 2.00008 31.2812 2.00008 31.2812C2.00008 31.2812 2.00008 31.2812 2.00008 31.2812C2.00008 31.2812 2.00008 31.2812 2.00008 31.2812C2.00008 31.2812 2.00008 31.2812 2.00008 31.2812C2.00008 31.2812 2.00007 31.2812 2.00007 31.2812C2.00007 31.2812 2.00007 31.2812 2.00007 31.2812C2.00007 31.2812 2.00007 31.2812 2.00007 31.2812C2.00007 31.2812 2.00007 31.2812 2.00007 31.2812C2.00007 31.2812 2.00007 31.2812 2.00007 31.2812C2.00007 31.2812 2.00007 31.2812 2.00007 31.2812C2.00007 31.2812 2.00007 31.2812 2.00007 31.2812C2.00007 31.2812 2.00007 31.2812 2.00007 31.2812C2.00007 31.2812 2.00007 31.2812 2.00007 31.2812C2.00007 31.2812 2.00007 31.2812 2.00007 31.2812C2.00007 31.2812 2.00007 31.2812 2.00007 31.2812C2.00007 31.2812 2.00007 31.2812 2.00007 31.2812C2.00007 31.2812 2.00007 31.2812 2.00007 31.2812C2.00007 31.2812 2.00007 31.2812 2.00007 31.2812C2.00007 31.2812 2.00007 31.2812 2.00007 31.2812C2.00007 31.2812 2.00007 31.2812 2.00007 31.2812C2.00007 31.2812 2.00007 31.2812 2.00007 31.2812C2.00007 31.2812 2.00007 31.2812 2.00007 31.2812C2.00007 31.2812 2.00007 31.2812 2.00007 31.2812C2.00007 31.2812 2.00007 31.2812 2.00007 31.2812C2.00007 31.2812 2.00007 31.2812 2.00007 31.2812C2.00007 31.2812 2.00007 31.2812 2.00007 31.2812C2.00007 31.2812 2.00007 31.2812 2.00007 31.2812C2.00007 31.2812 2.00007 31.2812 2.00007 31.2812C2.00007 31.2812 2.00007 31.2812 2.00007 31.2812C2.00007 31.2812 2.00007 31.2812 2.00007 31.2812C2.00007 31.2812 2.00007 31.2812 2.00007 31.2812C2.00007 31.2812 2.00007 31.2812 2.00007 31.2812C2.00007 31.2812 2.00007 31.2812 2.00007 31.2812C2.00007 31.2812 2.00006 31.2812 2.00006 31.2812C2.00006 31.2812 2.00006 31.2812 2.00006 31.2812C2.00006 31.2812 2.00006 31.2812 2.00006 31.2812C2.00006 31.2812 2.00006 31.2812 2.00006 31.2812C2.00006 31.2812 2.00006 31.2812 2.00006 31.2812C2.00006 31.2812 2.00006 31.2812 2.00006 31.2812C2.00006 31.2812 2.00006 31.2812 2.00006 31.2812C2.00006 31.2812 2.00006 31.2812 2.00006 31.2812C2.00006 31.2812 2.00006 31.2812 2.00006 31.2812C2.00006 31.2812 2.00006 31.2812 2.00006 31.2812C2.00006 31.2812 2.00006 31.2812 2.00006 31.2812C2.00006 31.2812 2.00006 31.2812 2.00006 31.2812C2.00006 31.2812 2.00006 31.2812 2.00006 31.2812C2.00006 31.2812 2.00006 31.2812 2.00006 31.2812C2.00006 31.2812 2.00006 31.2812 2.00006 31.2812C2.00006 31.2812 2.00006 31.2812 2.00006 31.2812C2.00006 31.2812 2.00006 31.2812 2.00006 31.2812C2.00006 31.2812 2.00006 31.2812 2.00006 31.2812C2.00006 31.2812 2.00006 31.2812 2.00006 31.2812C2.00006 31.2812 2.00006 31.2812 2.00006 31.2812C2.00006 31.2812 2.00006 31.2812 2.00006 31.2812C2.00006 31.2812 2.00006 31.2812 2.00006 31.2812C2.00006 31.2812 2.00006 31.2812 2.00006 31.2812C2.00006 31.2812 2.00006 31.2812 2.00006 31.2812C2.00006 31.2812 2.00006 31.2812 2.00006 31.2812C2.00006 31.2812 2.00006 31.2812 2.00006 31.2812C2.00006 31.2812 2.00006 31.2812 2.00006 31.2812C2.00006 31.2812 2.00006 31.2812 2.00006 31.2812C2.00006 31.2812 2.00006 31.2812 2.00006 31.2812C2.00005 31.2812 2.00005 31.2812 2.00005 31.2812C2.00005 31.2812 2.00005 31.2812 2.00005 31.2812C2.00005 31.2812 2.00005 31.2812 2.00005 31.2812C2.00005 31.2812 2.00005 31.2812 2.00005 31.2812C2.00005 31.2812 2.00005 31.2812 2.00005 31.2812C2.00005 31.2812 2.00005 31.2812 2.00005 31.2812C2.00005 31.2812 2.00005 31.2812 2.00005 31.2812C2.00005 31.2812 2.00005 31.2812 2.00005 31.2812C2.00005 31.2812 2.00005 31.2812 2.00005 31.2812C2.00005 31.2812 2.00005 31.2812 2.00005 31.2812C2.00005 31.2812 2.00005 31.2812 2.00005 31.2812C2.00005 31.2812 2.00005 31.2812 2.00005 31.2812C2.00005 31.2812 2.00005 31.2812 2.00005 31.2812C2.00005 31.2812 2.00005 31.2812 2.00005 31.2812C2.00005 31.2812 2.00005 31.2812 2.00005 31.2812C2.00005 31.2812 2.00005 31.2812 2.00005 31.2812C2.00005 31.2812 2.00005 31.2812 2.00005 31.2812C2.00005 31.2812 2.00005 31.2812 2.00005 31.2812C2.00005 31.2812 2.00005 31.2812 2.00005 31.2812C2.00005 31.2812 2.00005 31.2812 2.00005 31.2812C2.00005 31.2812 2.00005 31.2812 2.00005 31.2812C2.00005 31.2812 2.00005 31.2812 2.00005 31.2812C2.00005 31.2812 2.00005 31.2812 2.00005 31.2812C2.00005 31.2812 2.00005 31.2812 2.00005 31.2812C2.00005 31.2812 2.00005 31.2812 2.00005 31.2812C2.00005 31.2812 2.00005 31.2812 2.00005 31.2812C2.00005 31.2812 2.00005 31.2812 2.00005 31.2812C2.00005 31.2812 2.00005 31.2812 2.00005 31.2812C2.00005 31.2812 2.00005 31.2812 2.00005 31.2812C2.00004 31.2812 2.00004 31.2812 2.00004 31.2812C2.00004 31.2812 2.00004 31.2812 2.00004 31.2812C2.00004 31.2812 2.00004 31.2812 2.00004 31.2812C2.00004 31.2812 2.00004 31.2812 2.00004 31.2812C2.00004 31.2812 2.00004 31.2812 2.00004 31.2812C2.00004 31.2812 2.00004 31.2812 2.00004 31.2812C2.00004 31.2812 2.00004 31.2812 2.00004 31.2812C2.00004 31.2812 2.00004 31.2812 2.00004 31.2812C2.00004 31.2812 2.00004 31.2812 2.00004 31.2812C2.00004 31.2812 2.00004 31.2812 2.00004 31.2812C2.00004 31.2812 2.00004 31.2812 2.00004 31.2812C2.00004 31.2812 2.00004 31.2812 2.00004 31.2812C2.00004 31.2812 2.00004 31.2812 2.00004 31.2812C2.00004 31.2812 2.00004 31.2812 2.00004 31.2812C2.00004 31.2812 2.00004 31.2812 2.00004 31.2812C2.00004 31.2812 2.00004 31.2812 2.00004 31.2812C2.00004 31.2812 2.00004 31.2812 2.00004 31.2812C2.00004 31.2812 2.00004 31.2812 2.00004 31.2812C2.00004 31.2812 2.00004 31.2812 2.00004 31.2812C2.00004 31.2812 2.00004 31.2812 2.00004 31.2812C2.00004 31.2812 2.00004 31.2812 2.00004 31.2812C2.00004 31.2812 2.00004 31.2812 2.00004 31.2812C2.00004 31.2812 2.00004 31.2812 2.00004 31.2812C2.00004 31.2812 2.00004 31.2812 2.00004 31.2812C2.00004 31.2812 2.00004 31.2812 2.00004 31.2812C2.00004 31.2812 2.00004 31.2812 2.00004 31.2812C2.00004 31.2812 2.00004 31.2812 2.00004 31.2812C2.00004 31.2812 2.00004 31.2812 2.00004 31.2812C2.00004 31.2812 2.00004 31.2812 2.00003 31.2812C2.00003 31.2812 2.00003 31.2812 2.00003 31.2812C2.00003 31.2812 2.00003 31.2812 2.00003 31.2812C2.00003 31.2812 2.00003 31.2812 2.00003 31.2812C2.00003 31.2812 2.00003 31.2812 2.00003 31.2812C2.00003 31.2812 2.00003 31.2812 2.00003 31.2812C2.00003 31.2812 2.00003 31.2812 2.00003 31.2812C2.00003 31.2812 2.00003 31.2812 2.00003 31.2812C2.00003 31.2812 2.00003 31.2812 2.00003 31.2812C2.00003 31.2812 2.00003 31.2812 2.00003 31.2812C2.00003 31.2812 2.00003 31.2812 2.00003 31.2812C2.00003 31.2812 2.00003 31.2812 2.00003 31.2812C2.00003 31.2812 2.00003 31.2812 2.00003 31.2812C2.00003 31.2812 2.00003 31.2812 2.00003 31.2812C2.00003 31.2812 2.00003 31.2812 2.00003 31.2812C2.00003 31.2812 2.00003 31.2812 2.00003 31.2812C2.00003 31.2812 2.00003 31.2812 2.00003 31.2812C2.00003 31.2812 2.00003 31.2812 2.00003 31.2812C2.00003 31.2812 2.00003 31.2812 2.00003 31.2812C2.00003 31.2812 2.00003 31.2812 2.00003 31.2812C2.00003 31.2812 2.00003 31.2812 2.00003 31.2812C2.00003 31.2812 2.00003 31.2812 2.00003 31.2812C2.00003 31.2812 2.00003 31.2812 2.00003 31.2812C2.00003 31.2812 2.00003 31.2812 2.00003 31.2812C2.00003 31.2812 2.00003 31.2812 2.00003 31.2812C2.00003 31.2812 2.00003 31.2812 2.00003 31.2812C2.00003 31.2812 2.00003 31.2812 2.00003 31.2812C2.00003 31.2812 2.00003 31.2812 2.00003 31.2812C2.00003 31.2812 2.00003 31.2812 2.00003 31.2812C2.00003 31.2812 2.00003 31.2812 2.00002 31.2812C2.00002 31.2812 2.00002 31.2812 2.00002 31.2812C2.00002 31.2812 2.00002 31.2812 2.00002 31.2812C2.00002 31.2812 2.00002 31.2812 2.00002 31.2812C2.00002 31.2812 2.00002 31.2812 2.00002 31.2812C2.00002 31.2812 2.00002 31.2812 2.00002 31.2812C2.00002 31.2812 2.00002 31.2812 2.00002 31.2812C2.00002 31.2812 2.00002 31.2812 2.00002 31.2812C2.00002 31.2812 2.00002 31.2812 2.00002 31.2812C2.00002 31.2812 2.00002 31.2812 2.00002 31.2812C2.00002 31.2812 2.00002 31.2812 2.00002 31.2812C2.00002 31.2812 2.00002 31.2812 2.00002 31.2812C2.00002 31.2812 2.00002 31.2812 2.00002 31.2812C2.00002 31.2812 2.00002 31.2812 2.00002 31.2812C2.00002 31.2812 2.00002 31.2812 2.00002 31.2812C2.00002 31.2812 2.00002 31.2812 2.00002 31.2812C2.00002 31.2812 2.00002 31.2812 2.00002 31.2812C2.00002 31.2812 2.00002 31.2812 2.00002 31.2812C2.00002 31.2812 2.00002 31.2812 2.00002 31.2812C2.00002 31.2812 2.00002 31.2812 2.00002 31.2812C2.00002 31.2812 2.00002 31.2812 2.00002 31.2812C2.00002 31.2812 2.00002 31.2812 2.00002 31.2812C2.00002 31.2812 2.00002 31.2812 2.00002 31.2812C2.00002 31.2812 2.00002 31.2812 2.00002 31.2812C2.00002 31.2812 2.00002 31.2812 2.00002 31.2812C2.00002 31.2812 2.00002 31.2812 2.00002 31.2812C2.00002 31.2812 2.00002 31.2812 2.00002 31.2812C2.00002 31.2812 2.00002 31.2812 2.00002 31.2812C2.00002 31.2812 2.00002 31.2812 2.00002 31.2812C2.00002 31.2812 2.00002 31.2812 2.00001 31.2812C2.00001 31.2812 2.00001 31.2812 2.00001 31.2812C2.00001 31.2812 2.00001 31.2812 2.00001 31.2812C2.00001 31.2812 2.00001 31.2812 2.00001 31.2812C2.00001 31.2812 2.00001 31.2812 2.00001 31.2812C2.00001 31.2812 2.00001 31.2812 2.00001 31.2812C2.00001 31.2812 2.00001 31.2812 2.00001 31.2812C2.00001 31.2812 2.00001 31.2812 2.00001 31.2812C2.00001 31.2812 2.00001 31.2812 2.00001 31.2812C2.00001 31.2812 2.00001 31.2812 2.00001 31.2812C2.00001 31.2812 2.00001 31.2812 2.00001 31.2812C2.00001 31.2812 2.00001 31.2812 2.00001 31.2812C2.00001 31.2812 2.00001 31.2812 2.00001 31.2812C2.00001 31.2812 2.00001 31.2812 2.00001 31.2812C2.00001 31.2812 2.00001 31.2812 2.00001 31.2812C2.00001 31.2812 2.00001 31.2812 2.00001 31.2812C2.00001 31.2812 2.00001 31.2812 2.00001 31.2812C2.00001 31.2812 2.00001 31.2812 2.00001 31.2812C2.00001 31.2812 2.00001 31.2812 2.00001 31.2812C2.00001 31.2812 2.00001 31.2812 2.00001 31.2812C2.00001 31.2812 2.00001 31.2812 2.00001 31.2812C2.00001 31.2812 2.00001 31.2812 2.00001 31.2812C2.00001 31.2812 2.00001 31.2812 2.00001 31.2812C2.00001 31.2812 2.00001 31.2812 2.00001 31.2812C2.00001 31.2812 2.00001 31.2812 2.00001 31.2812C2.00001 31.2812 2.00001 31.2812 2.00001 31.2812C2.00001 31.2812 2.00001 31.2812 2.00001 31.2812C2.00001 31.2812 2.00001 31.2812 2.00001 31.2812C2.00001 31.2812 2.00001 31.2812 2.00001 31.2812C2.00001 31.2812 2 31.2812 2 31.2812C2 31.2812 2 31.2812 2 31.2812C2 31.2812 2 31.2812 2 31.2812C2 31.2812 2 31.2812 2 31.2812C2 31.2812 2 31.2812 2 31.2812C2 31.2812 2 31.2812 2 31.2812C2 31.2812 2 31.2812 2 31.2812C2 31.2812 2 31.2812 2 31.2812C2 31.2812 2 31.2812 2 31.2812C2 31.2812 2 31.2812 2 31.2812C2 31.2812 2 31.2812 2 31.2812C2 31.2812 2 31.2812 2 31.2812C2 31.2812 2 31.2812 2 31.2812C2 31.2812 2 31.2812 2 31.2812C2 31.2812 2 31.2812 2 31.2812V33.7833C2 33.7833 2 33.7833 2 33.7833C2 33.7833 2 33.7833 2 33.7833C2 33.7833 2 33.7833 2 33.7833C2 33.7833 2 33.7833 2 33.7833C2 33.7833 2 33.7833 2 33.7833C2 33.7833 2 33.7833 2 33.7833C2 33.7833 2 33.7833 2 33.7833C2 33.7833 2 33.7833 2 33.7833C2 33.7833 2 33.7833 2 33.7833C2 33.7833 2 33.7833 2 33.7833C2 33.7833 2 33.7833 2 33.7833C2 33.7833 2 33.7833 2 33.7833C2 33.7833 2 33.7833 2 33.7833C2 33.7833 2 33.7833 2 33.7833C2 33.7833 2.00001 33.7833 2.00001 33.7833C2.00001 33.7833 2.00001 33.7833 2.00001 33.7833C2.00001 33.7833 2.00001 33.7833 2.00001 33.7833C2.00001 33.7833 2.00001 33.7833 2.00001 33.7833C2.00001 33.7833 2.00001 33.7833 2.00001 33.7833C2.00001 33.7833 2.00001 33.7833 2.00001 33.7833C2.00001 33.7833 2.00001 33.7833 2.00001 33.7833C2.00001 33.7833 2.00001 33.7833 2.00001 33.7833C2.00001 33.7833 2.00001 33.7833 2.00001 33.7833C2.00001 33.7833 2.00001 33.7833 2.00001 33.7833C2.00001 33.7833 2.00001 33.7833 2.00001 33.7833C2.00001 33.7833 2.00001 33.7833 2.00001 33.7833C2.00001 33.7833 2.00001 33.7833 2.00001 33.7833C2.00001 33.7833 2.00001 33.7833 2.00001 33.7833C2.00001 33.7833 2.00001 33.7833 2.00001 33.7833C2.00001 33.7833 2.00001 33.7833 2.00001 33.7833C2.00001 33.7833 2.00001 33.7833 2.00001 33.7833C2.00001 33.7833 2.00001 33.7833 2.00001 33.7833C2.00001 33.7833 2.00001 33.7833 2.00001 33.7833C2.00001 33.7833 2.00001 33.7833 2.00001 33.7833C2.00001 33.7833 2.00001 33.7833 2.00001 33.7833C2.00001 33.7833 2.00001 33.7833 2.00001 33.7833C2.00001 33.7833 2.00001 33.7833 2.00001 33.7833C2.00001 33.7833 2.00001 33.7833 2.00001 33.7833C2.00001 33.7833 2.00001 33.7833 2.00001 33.7833C2.00001 33.7833 2.00001 33.7833 2.00001 33.7833C2.00001 33.7833 2.00001 33.7833 2.00001 33.7833C2.00001 33.7833 2.00001 33.7833 2.00001 33.7833C2.00001 33.7833 2.00001 33.7833 2.00001 33.7833C2.00002 33.7833 2.00002 33.7833 2.00002 33.7833C2.00002 33.7833 2.00002 33.7833 2.00002 33.7833C2.00002 33.7833 2.00002 33.7833 2.00002 33.7833C2.00002 33.7833 2.00002 33.7833 2.00002 33.7833C2.00002 33.7833 2.00002 33.7833 2.00002 33.7833C2.00002 33.7833 2.00002 33.7833 2.00002 33.7833C2.00002 33.7833 2.00002 33.7833 2.00002 33.7833C2.00002 33.7833 2.00002 33.7833 2.00002 33.7833C2.00002 33.7833 2.00002 33.7833 2.00002 33.7833C2.00002 33.7833 2.00002 33.7833 2.00002 33.7833C2.00002 33.7833 2.00002 33.7833 2.00002 33.7833C2.00002 33.7833 2.00002 33.7833 2.00002 33.7833C2.00002 33.7833 2.00002 33.7833 2.00002 33.7833C2.00002 33.7833 2.00002 33.7833 2.00002 33.7833C2.00002 33.7833 2.00002 33.7833 2.00002 33.7833C2.00002 33.7833 2.00002 33.7833 2.00002 33.7833C2.00002 33.7833 2.00002 33.7833 2.00002 33.7833C2.00002 33.7833 2.00002 33.7833 2.00002 33.7833C2.00002 33.7833 2.00002 33.7833 2.00002 33.7833C2.00002 33.7833 2.00002 33.7833 2.00002 33.7833C2.00002 33.7833 2.00002 33.7833 2.00002 33.7833C2.00002 33.7833 2.00002 33.7833 2.00002 33.7833C2.00002 33.7833 2.00002 33.7833 2.00002 33.7833C2.00002 33.7833 2.00002 33.7833 2.00002 33.7833C2.00002 33.7833 2.00002 33.7833 2.00002 33.7833C2.00002 33.7833 2.00002 33.7833 2.00002 33.7833C2.00002 33.7833 2.00002 33.7833 2.00002 33.7833C2.00002 33.7833 2.00002 33.7833 2.00002 33.7833C2.00002 33.7833 2.00002 33.7833 2.00002 33.7833C2.00003 33.7833 2.00003 33.7833 2.00003 33.7833C2.00003 33.7833 2.00003 33.7833 2.00003 33.7833C2.00003 33.7833 2.00003 33.7833 2.00003 33.7833C2.00003 33.7833 2.00003 33.7833 2.00003 33.7833C2.00003 33.7833 2.00003 33.7833 2.00003 33.7833C2.00003 33.7833 2.00003 33.7833 2.00003 33.7833C2.00003 33.7833 2.00003 33.7833 2.00003 33.7833C2.00003 33.7833 2.00003 33.7833 2.00003 33.7833C2.00003 33.7833 2.00003 33.7833 2.00003 33.7833C2.00003 33.7833 2.00003 33.7833 2.00003 33.7833C2.00003 33.7833 2.00003 33.7833 2.00003 33.7833C2.00003 33.7833 2.00003 33.7833 2.00003 33.7833C2.00003 33.7833 2.00003 33.7833 2.00003 33.7833C2.00003 33.7833 2.00003 33.7833 2.00003 33.7833C2.00003 33.7833 2.00003 33.7833 2.00003 33.7833C2.00003 33.7833 2.00003 33.7833 2.00003 33.7833C2.00003 33.7833 2.00003 33.7833 2.00003 33.7833C2.00003 33.7833 2.00003 33.7833 2.00003 33.7833C2.00003 33.7833 2.00003 33.7833 2.00003 33.7833C2.00003 33.7833 2.00003 33.7833 2.00003 33.7833C2.00003 33.7833 2.00003 33.7833 2.00003 33.7833C2.00003 33.7833 2.00003 33.7833 2.00003 33.7833C2.00003 33.7833 2.00003 33.7833 2.00003 33.7833C2.00003 33.7833 2.00003 33.7833 2.00003 33.7833C2.00003 33.7833 2.00003 33.7833 2.00003 33.7833C2.00003 33.7833 2.00003 33.7833 2.00003 33.7833C2.00003 33.7833 2.00003 33.7833 2.00003 33.7833C2.00003 33.7833 2.00003 33.7833 2.00003 33.7833C2.00003 33.7833 2.00003 33.7833 2.00003 33.7833C2.00004 33.7833 2.00004 33.7833 2.00004 33.7833C2.00004 33.7833 2.00004 33.7833 2.00004 33.7833C2.00004 33.7833 2.00004 33.7833 2.00004 33.7833C2.00004 33.7833 2.00004 33.7833 2.00004 33.7833C2.00004 33.7833 2.00004 33.7833 2.00004 33.7833C2.00004 33.7833 2.00004 33.7833 2.00004 33.7833C2.00004 33.7833 2.00004 33.7833 2.00004 33.7833C2.00004 33.7833 2.00004 33.7833 2.00004 33.7833C2.00004 33.7833 2.00004 33.7833 2.00004 33.7833C2.00004 33.7833 2.00004 33.7833 2.00004 33.7833C2.00004 33.7833 2.00004 33.7833 2.00004 33.7833C2.00004 33.7833 2.00004 33.7833 2.00004 33.7833C2.00004 33.7833 2.00004 33.7833 2.00004 33.7833C2.00004 33.7833 2.00004 33.7833 2.00004 33.7833C2.00004 33.7833 2.00004 33.7833 2.00004 33.7833C2.00004 33.7833 2.00004 33.7833 2.00004 33.7833C2.00004 33.7833 2.00004 33.7833 2.00004 33.7833C2.00004 33.7833 2.00004 33.7833 2.00004 33.7833C2.00004 33.7833 2.00004 33.7833 2.00004 33.7833C2.00004 33.7833 2.00004 33.7833 2.00004 33.7833C2.00004 33.7833 2.00004 33.7833 2.00004 33.7833C2.00004 33.7833 2.00004 33.7833 2.00004 33.7833C2.00004 33.7833 2.00004 33.7833 2.00004 33.7833C2.00004 33.7833 2.00004 33.7833 2.00004 33.7833C2.00004 33.7833 2.00004 33.7833 2.00004 33.7833C2.00004 33.7833 2.00004 33.7833 2.00004 33.7833C2.00004 33.7833 2.00004 33.7833 2.00004 33.7833C2.00004 33.7833 2.00004 33.7833 2.00004 33.7833C2.00004 33.7833 2.00004 33.7833 2.00005 33.7833C2.00005 33.7833 2.00005 33.7833 2.00005 33.7833C2.00005 33.7833 2.00005 33.7833 2.00005 33.7833C2.00005 33.7833 2.00005 33.7833 2.00005 33.7833C2.00005 33.7833 2.00005 33.7833 2.00005 33.7833C2.00005 33.7833 2.00005 33.7833 2.00005 33.7833C2.00005 33.7833 2.00005 33.7833 2.00005 33.7833C2.00005 33.7833 2.00005 33.7833 2.00005 33.7833C2.00005 33.7833 2.00005 33.7833 2.00005 33.7833C2.00005 33.7833 2.00005 33.7833 2.00005 33.7833C2.00005 33.7833 2.00005 33.7833 2.00005 33.7833C2.00005 33.7833 2.00005 33.7833 2.00005 33.7833C2.00005 33.7833 2.00005 33.7833 2.00005 33.7833C2.00005 33.7833 2.00005 33.7833 2.00005 33.7833C2.00005 33.7833 2.00005 33.7833 2.00005 33.7833C2.00005 33.7833 2.00005 33.7833 2.00005 33.7833C2.00005 33.7833 2.00005 33.7833 2.00005 33.7833C2.00005 33.7833 2.00005 33.7833 2.00005 33.7833C2.00005 33.7833 2.00005 33.7833 2.00005 33.7833C2.00005 33.7833 2.00005 33.7833 2.00005 33.7833C2.00005 33.7833 2.00005 33.7833 2.00005 33.7833C2.00005 33.7833 2.00005 33.7833 2.00005 33.7833C2.00005 33.7833 2.00005 33.7833 2.00005 33.7833C2.00005 33.7833 2.00005 33.7833 2.00005 33.7833C2.00005 33.7833 2.00005 33.7833 2.00005 33.7833C2.00005 33.7833 2.00005 33.7833 2.00005 33.7833C2.00005 33.7833 2.00005 33.7833 2.00005 33.7833C2.00005 33.7833 2.00005 33.7833 2.00005 33.7833C2.00005 33.7833 2.00005 33.7833 2.00005 33.7833C2.00005 33.7833 2.00005 33.7833 2.00006 33.7833C2.00006 33.7833 2.00006 33.7833 2.00006 33.7833C2.00006 33.7833 2.00006 33.7833 2.00006 33.7833C2.00006 33.7833 2.00006 33.7833 2.00006 33.7833C2.00006 33.7833 2.00006 33.7833 2.00006 33.7833C2.00006 33.7833 2.00006 33.7833 2.00006 33.7833C2.00006 33.7833 2.00006 33.7833 2.00006 33.7833C2.00006 33.7833 2.00006 33.7833 2.00006 33.7833C2.00006 33.7833 2.00006 33.7833 2.00006 33.7833C2.00006 33.7833 2.00006 33.7833 2.00006 33.7833C2.00006 33.7833 2.00006 33.7833 2.00006 33.7833C2.00006 33.7833 2.00006 33.7833 2.00006 33.7833C2.00006 33.7833 2.00006 33.7833 2.00006 33.7833C2.00006 33.7833 2.00006 33.7833 2.00006 33.7833C2.00006 33.7833 2.00006 33.7833 2.00006 33.7833C2.00006 33.7833 2.00006 33.7833 2.00006 33.7833C2.00006 33.7833 2.00006 33.7833 2.00006 33.7833C2.00006 33.7833 2.00006 33.7833 2.00006 33.7833C2.00006 33.7833 2.00006 33.7833 2.00006 33.7833C2.00006 33.7833 2.00006 33.7833 2.00006 33.7833C2.00006 33.7833 2.00006 33.7833 2.00006 33.7833C2.00006 33.7833 2.00006 33.7833 2.00006 33.7833C2.00006 33.7833 2.00006 33.7833 2.00006 33.7833C2.00006 33.7833 2.00006 33.7833 2.00006 33.7833C2.00006 33.7833 2.00006 33.7833 2.00006 33.7833C2.00006 33.7833 2.00006 33.7833 2.00006 33.7833C2.00006 33.7833 2.00006 33.7833 2.00006 33.7833C2.00006 33.7833 2.00006 33.7833 2.00006 33.7833C2.00006 33.7833 2.00006 33.7833 2.00006 33.7833C2.00006 33.7833 2.00007 33.7833 2.00007 33.7833C2.00007 33.7833 2.00007 33.7833 2.00007 33.7833C2.00007 33.7833 2.00007 33.7833 2.00007 33.7833C2.00007 33.7833 2.00007 33.7833 2.00007 33.7833C2.00007 33.7833 2.00007 33.7833 2.00007 33.7833C2.00007 33.7833 2.00007 33.7833 2.00007 33.7833C2.00007 33.7833 2.00007 33.7833 2.00007 33.7833C2.00007 33.7833 2.00007 33.7833 2.00007 33.7833C2.00007 33.7833 2.00007 33.7833 2.00007 33.7833C2.00007 33.7833 2.00007 33.7833 2.00007 33.7833C2.00007 33.7833 2.00007 33.7833 2.00007 33.7833C2.00007 33.7833 2.00007 33.7833 2.00007 33.7833C2.00007 33.7833 2.00007 33.7833 2.00007 33.7833C2.00007 33.7833 2.00007 33.7833 2.00007 33.7833C2.00007 33.7833 2.00007 33.7833 2.00007 33.7833C2.00007 33.7833 2.00007 33.7833 2.00007 33.7833C2.00007 33.7833 2.00007 33.7833 2.00007 33.7833C2.00007 33.7833 2.00007 33.7833 2.00007 33.7833C2.00007 33.7833 2.00007 33.7833 2.00007 33.7833C2.00007 33.7833 2.00007 33.7833 2.00007 33.7833C2.00007 33.7833 2.00007 33.7833 2.00007 33.7833C2.00007 33.7833 2.00007 33.7833 2.00007 33.7833C2.00007 33.7833 2.00007 33.7833 2.00007 33.7833C2.00007 33.7833 2.00007 33.7833 2.00007 33.7833C2.00007 33.7833 2.00007 33.7833 2.00007 33.7833C2.00007 33.7833 2.00007 33.7833 2.00007 33.7833C2.00007 33.7833 2.00007 33.7833 2.00007 33.7833C2.00007 33.7833 2.00007 33.7833 2.00007 33.7833C2.00007 33.7833 2.00007 33.7833 2.00007 33.7833C2.00007 33.7833 2.00008 33.7833 2.00008 33.7833C2.00008 33.7833 2.00008 33.7833 2.00008 33.7833C2.00008 33.7833 2.00008 33.7833 2.00008 33.7833C2.00008 33.7833 2.00008 33.7833 2.00008 33.7833C2.00008 33.7833 2.00008 33.7833 2.00008 33.7833C2.00008 33.7833 2.00008 33.7833 2.00008 33.7833C2.00008 33.7833 2.00008 33.7833 2.00008 33.7833C2.00008 33.7833 2.00008 33.7833 2.00008 33.7833C2.00008 33.7833 2.00008 33.7833 2.00008 33.7833C2.00008 33.7833 2.00008 33.7833 2.00008 33.7833C2.00008 33.7833 2.00008 33.7833 2.00008 33.7833C2.00008 33.7833 2.00008 33.7833 2.00008 33.7833C2.00008 33.7833 2.00008 33.7833 2.00008 33.7833C2.00008 33.7833 2.00008 33.7833 2.00008 33.7833C2.00008 33.7833 2.00008 33.7833 2.00008 33.7833C2.00008 33.7833 2.00008 33.7833 2.00008 33.7833C2.00008 33.7833 2.00008 33.7833 2.00008 33.7833C2.00008 33.7833 2.00008 33.7833 2.00008 33.7833C2.00008 33.7833 2.00008 33.7833 2.00008 33.7833C2.00008 33.7833 2.00008 33.7833 2.00008 33.7833C2.00008 33.7833 2.00008 33.7833 2.00008 33.7833C2.00008 33.7833 2.00008 33.7833 2.00008 33.7833C2.00008 33.7833 2.00008 33.7833 2.00008 33.7833C2.00008 33.7833 2.00008 33.7833 2.00008 33.7833C2.00008 33.7833 2.00008 33.7833 2.00008 33.7833C2.00008 33.7833 2.00008 33.7833 2.00008 33.7833C2.00008 33.7833 2.00008 33.7833 2.00008 33.7833C2.00008 33.7833 2.00008 33.7833 2.00008 33.7833C2.00008 33.7833 2.00008 33.7833 2.00008 33.7833C2.00008 33.7833 2.00009 33.7833 2.00009 33.7833C2.00009 33.7833 2.00009 33.7833 2.00009 33.7833C2.00009 33.7833 2.00009 33.7833 2.00009 33.7833C2.00009 33.7833 2.00009 33.7833 2.00009 33.7833C2.00009 33.7833 2.00009 33.7833 2.00009 33.7833C2.00009 33.7833 2.00009 33.7833 2.00009 33.7833C2.00009 33.7833 2.00009 33.7833 2.00009 33.7833C2.00009 33.7833 2.00009 33.7833 2.00009 33.7833C2.00009 33.7833 2.00009 33.7833 2.00009 33.7833C2.00009 33.7833 2.00009 33.7833 2.00009 33.7833C2.00009 33.7833 2.00009 33.7833 2.00009 33.7833C2.00009 33.7833 2.00009 33.7833 2.00009 33.7833C2.00009 33.7833 2.00009 33.7833 2.00009 33.7833C2.00009 33.7833 2.00009 33.7833 2.00009 33.7833C2.00009 33.7833 2.00009 33.7833 2.00009 33.7833C2.00009 33.7833 2.00009 33.7833 2.00009 33.7833C2.00009 33.7833 2.00009 33.7833 2.00009 33.7833C2.00009 33.7833 2.00009 33.7833 2.00009 33.7833C2.00009 33.7833 2.00009 33.7833 2.00009 33.7833C2.00009 33.7833 2.00009 33.7833 2.00009 33.7833C2.00009 33.7833 2.00009 33.7833 2.00009 33.7833C2.00009 33.7833 2.00009 33.7833 2.00009 33.7833C2.00009 33.7833 2.00009 33.7833 2.00009 33.7833C2.00009 33.7833 2.00009 33.7833 2.00009 33.7833C2.00009 33.7833 2.00009 33.7833 2.00009 33.7833C2.00009 33.7833 2.00009 33.7833 2.00009 33.7833C2.00009 33.7833 2.00009 33.7833 2.00009 33.7833C2.00009 33.7833 2.00009 33.7833 2.00009 33.7833C2.00009 33.7833 2.00009 33.7833 2.00009 33.7833C2.0001 33.7833 2.0001 33.7833 2.0001 33.7833C2.0001 33.7833 2.0001 33.7833 2.0001 33.7833C2.0001 33.7833 2.0001 33.7833 2.0001 33.7833C2.0001 33.7833 2.0001 33.7833 2.0001 33.7833C2.0001 33.7833 2.0001 33.7833 2.0001 33.7833C2.0001 33.7833 2.0001 33.7833 2.0001 33.7833C2.0001 33.7833 2.0001 33.7833 2.0001 33.7833C2.0001 33.7833 2.0001 33.7833 2.0001 33.7833C2.0001 33.7833 2.0001 33.7833 2.0001 33.7833C2.0001 33.7833 2.0001 33.7833 2.0001 33.7833C2.0001 33.7833 2.0001 33.7833 2.0001 33.7833C2.0001 33.7833 2.0001 33.7833 2.0001 33.7833C2.0001 33.7833 2.0001 33.7833 2.0001 33.7833C2.0001 33.7833 2.0001 33.7833 2.0001 33.7833C2.0001 33.7833 2.0001 33.7833 2.0001 33.7833C2.0001 33.7833 2.0001 33.7833 2.0001 33.7833C2.0001 33.7833 2.0001 33.7833 2.0001 33.7833C2.0001 33.7833 2.0001 33.7833 2.0001 33.7833C2.0001 33.7833 2.0001 33.7833 2.0001 33.7833C2.0001 33.7833 2.0001 33.7833 2.0001 33.7833C2.0001 33.7833 2.0001 33.7833 2.0001 33.7833C2.0001 33.7833 2.0001 33.7833 2.0001 33.7833C2.0001 33.7833 2.0001 33.7833 2.0001 33.7833C2.0001 33.7833 2.0001 33.7833 2.0001 33.7833C2.0001 33.7833 2.0001 33.7833 2.0001 33.7833C2.0001 33.7833 2.0001 33.7833 2.0001 33.7833C2.0001 33.7833 2.0001 33.7833 2.0001 33.7833C2.0001 33.7833 2.0001 33.7833 2.0001 33.7833C2.0001 33.7833 2.0001 33.7833 2.0001 33.7833C2.00011 33.7833 2.00011 33.7833 2.00011 33.7833C2.00011 33.7833 2.00011 33.7833 2.00011 33.7833C2.00011 33.7833 2.00011 33.7833 2.00011 33.7833C2.00011 33.7833 2.00011 33.7833 2.00011 33.7833C2.00011 33.7833 2.00011 33.7833 2.00011 33.7833C2.00011 33.7833 2.00011 33.7833 2.00011 33.7833C2.00011 33.7833 2.00011 33.7833 2.00011 33.7833C2.00011 33.7833 2.00011 33.7833 2.00011 33.7833C2.00011 33.7833 2.00011 33.7833 2.00011 33.7833C2.00011 33.7833 2.00011 33.7833 2.00011 33.7833C2.00011 33.7833 2.00011 33.7833 2.00011 33.7833C2.00011 33.7833 2.00011 33.7833 2.00011 33.7833C2.00011 33.7833 2.00011 33.7833 2.00011 33.7833C2.00011 33.7833 2.00011 33.7833 2.00011 33.7833C2.00011 33.7833 2.00011 33.7833 2.00011 33.7833C2.00011 33.7833 2.00011 33.7833 2.00011 33.7833C2.00011 33.7833 2.00011 33.7833 2.00011 33.7833C2.00011 33.7833 2.00011 33.7833 2.00011 33.7833C2.00011 33.7833 2.00011 33.7833 2.00011 33.7833C2.00011 33.7833 2.00011 33.7833 2.00011 33.7833C2.00011 33.7833 2.00011 33.7833 2.00011 33.7833C2.00011 33.7833 2.00011 33.7833 2.00011 33.7833C2.00011 33.7833 2.00011 33.7833 2.00011 33.7833C2.00011 33.7833 2.00011 33.7833 2.00011 33.7833C2.00011 33.7833 2.00011 33.7833 2.00011 33.7833C2.00011 33.7833 2.00011 33.7833 2.00011 33.7833C2.00011 33.7833 2.00011 33.7833 2.00011 33.7833C2.00011 33.7833 2.00011 33.7833 2.00011 33.7833C2.00011 33.7833 2.00011 33.7833 2.00012 33.7833C2.00012 33.7833 2.00012 33.7833 2.00012 33.7833C2.00012 33.7833 2.00012 33.7833 2.00012 33.7833C2.00012 33.7833 2.00012 33.7833 2.00012 33.7833C2.00012 33.7833 2.00012 33.7833 2.00012 33.7833C2.00012 33.7833 2.00012 33.7833 2.00012 33.7833C2.00012 33.7833 2.00012 33.7833 2.00012 33.7833C2.00012 33.7833 2.00012 33.7833 2.00012 33.7833C2.00012 33.7833 2.00012 33.7833 2.00012 33.7833C2.00012 33.7833 2.00012 33.7833 2.00012 33.7833C2.00012 33.7833 2.00012 33.7833 2.00012 33.7833C2.00012 33.7833 2.00012 33.7833 2.00012 33.7833C2.00012 33.7833 2.00012 33.7833 2.00012 33.7833C2.00012 33.7833 2.00012 33.7833 2.00012 33.7833C2.00012 33.7833 2.00012 33.7833 2.00012 33.7833C2.00012 33.7833 2.00012 33.7833 2.00012 33.7833C2.00012 33.7833 2.00012 33.7833 2.00012 33.7833C2.00012 33.7833 2.00012 33.7833 2.00012 33.7833C2.00012 33.7833 2.00012 33.7833 2.00012 33.7833C2.00012 33.7833 2.00012 33.7833 2.00012 33.7833C2.00012 33.7833 2.00012 33.7833 2.00012 33.7833C2.00012 33.7833 2.00012 33.7833 2.00012 33.7833C2.00012 33.7833 2.00012 33.7833 2.00012 33.7833C2.00012 33.7833 2.00012 33.7833 2.00012 33.7833C2.00012 33.7833 2.00012 33.7833 2.00012 33.7833C2.00012 33.7833 2.00012 33.7833 2.00012 33.7833C2.00012 33.7833 2.00012 33.7833 2.00012 33.7833C2.00012 33.7833 2.00012 33.7833 2.00012 33.7833C2.00012 33.7833 2.00012 33.7833 2.00012 33.7833C2.00012 33.7833 2.00012 33.7833 2.00013 33.7833C2.00013 33.7833 2.00013 33.7833 2.00013 33.7833C2.00013 33.7833 2.00013 33.7833 2.00013 33.7833C2.00013 33.7833 2.00013 33.7833 2.00013 33.7833C2.00013 33.7833 2.00013 33.7833 2.00013 33.7833C2.00013 33.7833 2.00013 33.7833 2.00013 33.7833C2.00013 33.7833 2.00013 33.7833 2.00013 33.7833C2.00013 33.7833 2.00013 33.7833 2.00013 33.7833C2.00013 33.7833 2.00013 33.7833 2.00013 33.7833C2.00013 33.7833 2.00013 33.7833 2.00013 33.7833C2.00013 33.7833 2.00013 33.7833 2.00013 33.7833C2.00013 33.7833 2.00013 33.7833 2.00013 33.7833C2.00013 33.7833 2.00013 33.7833 2.00013 33.7833C2.00013 33.7833 2.00013 33.7833 2.00013 33.7833C2.00013 33.7833 2.00013 33.7833 2.00013 33.7833C2.00013 33.7833 2.00013 33.7833 2.00013 33.7833C2.00013 33.7833 2.00013 33.7833 2.00013 33.7833C2.00013 33.7833 2.00013 33.7833 2.00013 33.7833C2.00013 33.7833 2.00013 33.7833 2.00013 33.7833C2.00013 33.7833 2.00013 33.7833 2.00013 33.7833C2.00013 33.7833 2.00013 33.7833 2.00013 33.7833C2.00013 33.7833 2.00013 33.7833 2.00013 33.7833C2.00013 33.7833 2.00013 33.7833 2.00013 33.7833C2.00013 33.7833 2.00013 33.7833 2.00013 33.7833C2.00013 33.7833 2.00013 33.7833 2.00013 33.7833C2.00013 33.7833 2.00013 33.7833 2.00013 33.7833C2.00013 33.7833 2.00013 33.7833 2.00013 33.7833C2.00013 33.7833 2.00013 33.7833 2.00013 33.7833C2.00013 33.7833 2.00013 33.7833 2.00013 33.7833C2.00013 33.7833 2.00014 33.7833 2.00014 33.7833C2.00014 33.7833 2.00014 33.7833 2.00014 33.7833C2.00014 33.7833 2.00014 33.7833 2.00014 33.7833C2.00014 33.7833 2.00014 33.7833 2.00014 33.7833C2.00014 33.7833 2.00014 33.7833 2.00014 33.7833C2.00014 33.7833 2.00014 33.7833 2.00014 33.7833C2.00014 33.7833 2.00014 33.7833 2.00014 33.7833C2.00014 33.7833 2.00014 33.7833 2.00014 33.7833C2.00014 33.7833 2.00014 33.7833 2.00014 33.7833C2.00014 33.7833 2.00014 33.7833 2.00014 33.7833C2.00014 33.7833 2.00014 33.7833 2.00014 33.7833C2.00014 33.7833 2.00014 33.7833 2.00014 33.7833C2.00014 33.7833 2.00014 33.7833 2.00014 33.7833C2.00014 33.7833 2.00014 33.7833 2.00014 33.7833C2.00014 33.7833 2.00014 33.7833 2.00014 33.7833C2.00014 33.7833 2.00014 33.7833 2.00014 33.7833C2.00014 33.7833 2.00014 33.7833 2.00014 33.7833C2.00014 33.7833 2.00014 33.7833 2.00014 33.7833C2.00014 33.7833 2.00014 33.7833 2.00014 33.7833C2.00014 33.7833 2.00014 33.7833 2.00014 33.7833C2.00014 33.7833 2.00014 33.7833 2.00014 33.7833C2.00014 33.7833 2.00014 33.7833 2.00014 33.7833C2.00014 33.7833 2.00014 33.7833 2.00014 33.7833C2.00014 33.7833 2.00014 33.7833 2.00014 33.7833C2.00014 33.7833 2.00014 33.7833 2.00014 33.7833C2.00014 33.7833 2.00014 33.7833 2.00014 33.7833C2.00014 33.7833 2.00014 33.7833 2.00014 33.7833C2.00014 33.7833 2.00014 33.7833 2.00014 33.7833C2.00014 33.7833 2.00014 33.7833 2.00014 33.7833C2.00014 33.7833 2.00015 33.7833 2.00015 33.7833C2.00015 33.7833 2.00015 33.7833 2.00015 33.7833C2.00015 33.7833 2.00015 33.7833 2.00015 33.7833C2.00015 33.7833 2.00015 33.7833 2.00015 33.7833C2.00015 33.7833 2.00015 33.7833 2.00015 33.7833C2.00015 33.7833 2.00015 33.7833 2.00015 33.7833C2.00015 33.7833 2.00015 33.7833 2.00015 33.7833C2.00015 33.7833 2.00015 33.7833 2.00015 33.7833C2.00015 33.7833 2.00015 33.7833 2.00015 33.7833C2.00015 33.7833 2.00015 33.7833 2.00015 33.7833C2.00015 33.7833 2.00015 33.7833 2.00015 33.7833C2.00015 33.7833 2.00015 33.7833 2.00015 33.7833C2.00015 33.7833 2.00015 33.7833 2.00015 33.7833C2.00015 33.7833 2.00015 33.7833 2.00015 33.7833C2.00015 33.7833 2.00015 33.7833 2.00015 33.7833C2.00015 33.7833 2.00015 33.7833 2.00015 33.7833C2.00015 33.7833 2.00015 33.7833 2.00015 33.7833C2.00015 33.7833 2.00015 33.7833 2.00015 33.7833C2.00015 33.7833 2.00015 33.7833 2.00015 33.7833C2.00015 33.7833 2.00015 33.7833 2.00015 33.7833C2.00015 33.7833 2.00015 33.7833 2.00015 33.7833C2.00015 33.7833 2.00015 33.7833 2.00015 33.7833C2.00015 33.7833 2.00015 33.7833 2.00015 33.7833C2.00015 33.7833 2.00015 33.7833 2.00015 33.7833C2.00015 33.7833 2.00015 33.7833 2.00015 33.7833C2.00015 33.7833 2.00015 33.7833 2.00015 33.7833C2.00015 33.7833 2.00015 33.7833 2.00015 33.7833C2.00015 33.7833 2.00015 33.7833 2.00015 33.7833C2.00015 33.7833 2.00015 33.7833 2.00015 33.7833C2.00015 33.7833 2.00016 33.7833 2.00016 33.7833C2.00016 33.7833 2.00016 33.7833 2.00016 33.7833C2.00016 33.7833 2.00016 33.7833 2.00016 33.7833C2.00016 33.7833 2.00016 33.7833 2.00016 33.7833C2.00016 33.7833 2.00016 33.7833 2.00016 33.7833C2.00016 33.7833 2.00016 33.7833 2.00016 33.7833C2.00016 33.7833 2.00016 33.7833 2.00016 33.7833C2.00016 33.7833 2.00016 33.7833 2.00016 33.7833C2.00016 33.7833 2.00016 33.7833 2.00016 33.7833C2.00016 33.7833 2.00016 33.7833 2.00016 33.7833C2.00016 33.7833 2.00016 33.7833 2.00016 33.7833C2.00016 33.7833 2.00016 33.7833 2.00016 33.7833C2.00016 33.7833 2.00016 33.7833 2.00016 33.7833C2.00016 33.7833 2.00016 33.7833 2.00016 33.7833C2.00016 33.7833 2.00016 33.7833 2.00016 33.7833C2.00016 33.7833 2.00016 33.7833 2.00016 33.7833C2.00016 33.7833 2.00016 33.7833 2.00016 33.7833C2.00016 33.7833 2.00016 33.7833 2.00016 33.7833C2.00016 33.7833 2.00016 33.7833 2.00016 33.7833C2.00016 33.7833 2.00016 33.7833 2.00016 33.7833C2.00016 33.7833 2.00016 33.7833 2.00016 33.7833C2.00016 33.7833 2.00016 33.7833 2.00016 33.7833C2.00016 33.7833 2.00016 33.7833 2.00016 33.7833C2.00016 33.7833 2.00016 33.7833 2.00016 33.7833C2.00016 33.7833 2.00016 33.7833 2.00016 33.7833C2.00016 33.7833 2.00016 33.7833 2.00016 33.7833C2.00016 33.7833 2.00016 33.7833 2.00016 33.7833C2.00016 33.7833 2.00016 33.7833 2.00016 33.7833C2.00016 33.7833 2.00016 33.7833 2.00016 33.7833C2.00017 33.7833 2.00017 33.7833 2.00017 33.7833C2.00017 33.7833 2.00017 33.7833 2.00017 33.7833C2.00017 33.7833 2.00017 33.7833 2.00017 33.7833C2.00017 33.7833 2.00017 33.7833 2.00017 33.7833C2.00017 33.7833 2.00017 33.7833 2.00017 33.7833C2.00017 33.7833 2.00017 33.7833 2.00017 33.7833C2.00017 33.7833 2.00017 33.7833 2.00017 33.7833C2.00017 33.7833 2.00017 33.7833 2.00017 33.7833C2.00017 33.7833 2.00017 33.7833 2.00017 33.7833C2.00017 33.7833 2.00017 33.7833 2.00017 33.7833C2.00017 33.7833 2.00017 33.7833 2.00017 33.7833C2.00017 33.7833 2.00017 33.7833 2.00017 33.7833C2.00017 33.7833 2.00017 33.7833 2.00017 33.7833C2.00017 33.7833 2.00017 33.7833 2.00017 33.7833C2.00017 33.7833 2.00017 33.7833 2.00017 33.7833C2.00017 33.7833 2.00017 33.7833 2.00017 33.7833C2.00017 33.7833 2.00017 33.7833 2.00017 33.7833C2.00017 33.7833 2.00017 33.7833 2.00017 33.7833C2.00017 33.7833 2.00017 33.7833 2.00017 33.7833C2.00017 33.7833 2.00017 33.7833 2.00017 33.7833C2.00017 33.7833 2.00017 33.7833 2.00017 33.7833C2.00017 33.7833 2.00017 33.7833 2.00017 33.7833C2.00017 33.7833 2.00017 33.7833 2.00017 33.7833C2.00017 33.7833 2.00017 33.7833 2.00017 33.7833C2.00017 33.7833 2.00017 33.7833 2.00017 33.7833C2.00017 33.7833 2.00017 33.7833 2.00017 33.7833C2.00017 33.7833 2.00017 33.7833 2.00017 33.7833C2.00017 33.7833 2.00017 33.7833 2.00017 33.7833C2.00017 33.7833 2.00017 33.7833 2.00017 33.7833C2.00018 33.7833 2.00018 33.7833 2.00018 33.7833C2.00018 33.7833 2.00018 33.7833 2.00018 33.7833C2.00018 33.7833 2.00018 33.7833 2.00018 33.7833C2.00018 33.7833 2.00018 33.7833 2.00018 33.7833C2.00018 33.7833 2.00018 33.7833 2.00018 33.7833C2.00018 33.7833 2.00018 33.7833 2.00018 33.7833C2.00018 33.7833 2.00018 33.7833 2.00018 33.7833V31.2812Z" fill="#041423"/>
<path d="M10.1321 36.8006C26.3769 36.4836 39.5227 23.8465 39.8635 8.13646H265.823C265.82 8.30986 265.818 8.48362 265.818 8.65774C265.818 24.1895 278.334 36.8671 294.124 37.8873V115.899C278.546 116.905 266.156 129.257 265.825 144.503H39.8635C39.5227 128.793 26.3769 116.155 10.1321 115.838V36.8006Z" stroke="#041423" stroke-width="1.25107"/>
</svg>
